Part I
------

1. Good job

2. Good job

3. Good job

4. Good job

5. Good job

6. Good job

7. Good job

8. Good job

9. Good job

10. Good job

11. Good job

12. Good job

13. Good job

14. Good job

15. Good job

Part II
-------

1. Good job

2. Good job

3. Good job

4. -5 Answer: Seconds

5. Good job

6. Good job

Total:  95/100

Graded by: Trevor Heins
If you have any questions please don't hesitate to email me at tjh88@drexel.edu or visit my office hours on Fridays from 4-6 in University Crossings 147.